…
``` r
litters_df = janitor::clean_names(litters_df)
```

## Take a look at the data

Printing in the console.

``` r
litters_df
```

    ## # A tibble: 49 × 8
    ##    group litter_number   gd0_weight gd18_weight gd_of_birth pups_born_alive
    ##    <chr> <chr>                <dbl>       <dbl>       <dbl>           <dbl>
    ##  1 Con7  #85                   19.7        34.7          20               3
    ##  2 Con7  #1/2/95/2             27          42            19               8
    ##  3 Con7  #5/5/3/83/3-3         26          41.4          19               6
    ##  4 Con7  #5/4/2/95/2           28.5        44.1          19               5
    ##  5 Con7  #4/2/95/3-3           NA          NA            20               6
    ##  6 Con7  #2/2/95/3-2           NA          NA            20               6
    ##  7 Con7  #1/5/3/83/3-3/2       NA          NA            20               9
    ##  8 Con8  #3/83/3-3             NA          NA            20               9
    ##  9 Con8  #2/95/3               NA          NA            20               8
    ## 10 Con8  #3/5/2/2/95           28.5        NA            20               8
    ## # ℹ 39 more rows
    ## # ℹ 2 more variables: pups_dead_birth <dbl>, pups_survive <dbl>
…
    ## Rows: 40 Columns: 8
    ## ── Column specification ────────────────────────────────────────────────────────
    ## Delimiter: ","
    ## chr (2): X1, X2
    ## dbl (6): X3, X4, X5, X6, X7, X8
    ## 
    ## ℹ Use `spec()` to retrieve the full column specification for this data.
    ## ℹ Specify the column types or set `show_col_types = FALSE` to quiet this message.

``` r
litters_df
```

    ## # A tibble: 40 × 8
    ##    X1    X2                 X3    X4    X5    X6    X7    X8
    ##    <chr> <chr>           <dbl> <dbl> <dbl> <dbl> <dbl> <dbl>
    ##  1 Con8  #3/5/2/2/95      28.5  NA      20     8     0     8
    ##  2 Con8  #5/4/3/83/3      28    NA      19     9     0     8
    ##  3 Con8  #1/6/2/2/95-2    NA    NA      20     7     0     6
    ##  4 Con8  #3/5/3/83/3-3-2  NA    NA      20     8     0     8
    ##  5 Con8  #2/2/95/2        NA    NA      19     5     0     4
    ##  6 Con8  #3/6/2/2/95-3    NA    NA      20     7     0     7
    ##  7 Mod7  #59              17    33.4    19     8     0     5
    ##  8 Mod7  #103             21.4  42.1    19     9     1     9
    ##  9 Mod7  #1/82/3-2        NA    NA      19     6     0     6
    ## 10 Mod7  #3/83/3-2        NA    NA      19     8     0     8
    ## # ℹ 30 more rows
…
Read in a SAS file.

``` r
pulse_df=read_sas("./data/public_pulse_data.sas7bdat")
pulse_df
```

    ## # A tibble: 1,087 × 7
    ##       ID   age Sex    BDIScore_BL BDIScore_01m BDIScore_06m BDIScore_12m
    ##    <dbl> <dbl> <chr>        <dbl>        <dbl>        <dbl>        <dbl>
    ##  1 10003  48.0 male             7            1            2            0
    ##  2 10015  72.5 male             6           NA           NA           NA
    ##  3 10022  58.5 male            14            3            8           NA
    ##  4 10026  72.7 male            20            6           18           16
    ##  5 10035  60.4 male             4            0            1            2
    ##  6 10050  84.7 male             2           10           12            8
    ##  7 10078  31.3 male             4            0           NA           NA
    ##  8 10088  56.9 male             5           NA            0            2
    ##  9 10091  76.0 male             0            3            4            0
    ## 10 10092  74.2 female          10            2           11            6
    ## # ℹ 1,077 more rows
