…
## `pivot_longer`

Load the PULSE data(SAS format)

``` r
pulse_data = 
  haven::read_sas("./data/public_pulse_data.sas7bdat") %>%
  janitor::clean_names()
pulse_data
```

    ## # A tibble: 1,087 × 7
    ##       id   age sex    bdi_score_bl bdi_score_01m bdi_score_06m bdi_score_12m
    ##    <dbl> <dbl> <chr>         <dbl>         <dbl>         <dbl>         <dbl>
    ##  1 10003  48.0 male              7             1             2             0
    ##  2 10015  72.5 male              6            NA            NA            NA
    ##  3 10022  58.5 male             14             3             8            NA
    ##  4 10026  72.7 male             20             6            18            16
    ##  5 10035  60.4 male              4             0             1             2
    ##  6 10050  84.7 male              2            10            12             8
    ##  7 10078  31.3 male              4             0            NA            NA
    ##  8 10088  56.9 male              5            NA             0             2
    ##  9 10091  76.0 male              0             3             4             0
    ## 10 10092  74.2 female           10             2            11             6
    ## # ℹ 1,077 more rows
…
``` r
pulse_data_tidy =
  pulse_data %>%
  pivot_longer(
    bdi_score_bl:bdi_score_12m,
    names_to = "visit", 
    names_prefix = "bdi_score_",
#delete the prefix "bdi_score_"
    values_to = "bdi")

pulse_data_tidy
```

    ## # A tibble: 4,348 × 5
    ##       id   age sex   visit   bdi
    ##    <dbl> <dbl> <chr> <chr> <dbl>
    ##  1 10003  48.0 male  bl        7
    ##  2 10003  48.0 male  01m       1
    ##  3 10003  48.0 male  06m       2
    ##  4 10003  48.0 male  12m       0
    ##  5 10015  72.5 male  bl        6
    ##  6 10015  72.5 male  01m      NA
    ##  7 10015  72.5 male  06m      NA
    ##  8 10015  72.5 male  12m      NA
    ##  9 10022  58.5 male  bl       14
    ## 10 10022  58.5 male  01m       3
    ## # ℹ 4,338 more rows
…
``` r
pulse_data = 
  haven::read_sas("./data/public_pulse_data.sas7bdat") %>%
  janitor::clean_names() %>%
  pivot_longer(
    bdi_score_bl:bdi_score_12m,
    names_to = "visit", 
    names_prefix = "bdi_score_",
    values_to = "bdi") %>%
  relocate(id, visit) %>%
  mutate(visit=recode(visit, "bl"="00m"))
pulse_data
```

    ## # A tibble: 4,348 × 5
    ##       id visit   age sex     bdi
    ##    <dbl> <chr> <dbl> <chr> <dbl>
    ##  1 10003 00m    48.0 male      7
    ##  2 10003 01m    48.0 male      1
    ##  3 10003 06m    48.0 male      2
    ##  4 10003 12m    48.0 male      0
    ##  5 10015 00m    72.5 male      6
    ##  6 10015 01m    72.5 male     NA
    ##  7 10015 06m    72.5 male     NA
    ##  8 10015 12m    72.5 male     NA
    ##  9 10022 00m    58.5 male     14
    ## 10 10022 01m    58.5 male      3
    ## # ℹ 4,338 more rows
…
    ## Rows: 49 Columns: 8
    ## ── Column specification ────────────────────────────────────────────────────────
    ## Delimiter: ","
    ## chr (2): Group, Litter Number
    ## dbl (6): GD0 weight, GD18 weight, GD of Birth, Pups born alive, Pups dead @ ...
    ## 
    ## ℹ Use `spec()` to retrieve the full column specification for this data.
    ## ℹ Specify the column types or set `show_col_types = FALSE` to quiet this message.

``` r
litters_wide
```

    ## # A tibble: 98 × 3
    ##    litter_number    gd weight
    ##    <chr>         <dbl>  <dbl>
    ##  1 #85               0   19.7
    ##  2 #85              18   34.7
    ##  3 #1/2/95/2         0   27  
    ##  4 #1/2/95/2        18   42  
    ##  5 #5/5/3/83/3-3     0   26  
    ##  6 #5/5/3/83/3-3    18   41.4
    ##  7 #5/4/2/95/2       0   28.5
    ##  8 #5/4/2/95/2      18   44.1
    ##  9 #4/2/95/3-3       0   NA  
    ## 10 #4/2/95/3-3      18   NA  
    ## # ℹ 88 more rows
…
Join now

``` r
fas_data = 
  left_join(pup_data, litter_data, by = "litter_number") %>%
  arrange(litter_number) %>%
  relocate(litter_number, dose, day_of_tx)
fas_data
```

    ## # A tibble: 313 × 15
    ##    litter_number   dose  day_of_tx sex    pd_ears pd_eyes pd_pivot pd_walk
    ##    <chr>           <chr> <chr>     <fct>    <dbl>   <dbl>    <dbl>   <dbl>
    ##  1 #1/2/95/2       con   7         male         5      13        7       9
    ##  2 #1/2/95/2       con   7         male         5      13        8      10
    ##  3 #1/2/95/2       con   7         female       4      13        7       9
    ##  4 #1/2/95/2       con   7         female       4      13        7      10
    ##  5 #1/2/95/2       con   7         female       5      13        8      10
    ##  6 #1/2/95/2       con   7         female       5      13        8      10
    ##  7 #1/2/95/2       con   7         female       5      13        6      10
    ##  8 #1/5/3/83/3-3/2 con   7         male         4      NA       NA       9
    ##  9 #1/5/3/83/3-3/2 con   7         male         4      NA        7       9
    ## 10 #1/5/3/83/3-3/2 con   7         male         4      NA        7       9
    ## # ℹ 303 more rows
    ## # ℹ 7 more variables: gd0_weight <dbl>, gd18_weight <dbl>, gd_of_birth <dbl>,
    ## #   pups_born_alive <dbl>, pups_dead_birth <dbl>, pups_survive <dbl>,
    ## #   wt_gain <dbl>
